{
  "web": {
    "client_id": "blogger-189420",
    "client_secret": "AIzaSyA-0jlZLSYh1Tmzftc4jvxRsBLHg3gJo4Q",
    "redirect_uris": ["https://www.example.com/oauth2callback"],
    "auth_uri": "https://accounts.google.com/o/oauth2/auth",
    "token_uri": "https://accounts.google.com/o/oauth2/token"
  }
}